1,19.9
2,18.8
3,34.0
4,53.5
5,57.0
6,44.8
7,61.3
8,65.9
9,79.7
10,88.9
11,115.0
12,112.1
13,144.7
14,162.2
15,165.8
16,169.3
17,173.0
18,163.6
19,161.2
20,166.8
21,141.6
22,161.0
23,170.8
24,153.6
25,157.2
26,172.7
27,188.3
28,196.2
29,182.6
30,187.5
31,166.4
32,175.8
33,167.1
34,175.4
35,185.9
36,181.7
37,181.9
38,198.5
39,183.3
40,175.4
41,152.3
42,166.2
43,158.3
44,191.0
45,167.7
46,190.3
47,192.2
48,151.6
49,177.0
50,198.5
51,173.8
52,167.2
53,133.7
54,118.0
55,155.5
56,156.5
57,149.9
58,165.2
59,167.1
60,144.4
61,164.6
62,183.5
63,193.2
64,183.6
65,189.2
66,193.0
67,173.0
68,181.7
69,179.7
70,192.5
71,200.0
72,200.0
73,192.8
74,198.2
75,187.8
76,146.0
77,179.6
78,147.0
79,175.4
80,172.7
81,193.3
82,184.6
83,168.0
84,175.1
85,181.2
86,195.7
87,176.3
88,184.7
89,154.1
90,171.8
91,170.4
92,200.0
93,196.1
94,200.0
95,200.0
96,191.6
97,200.0
98,199.9
99,200.0
100,194.0
