1,34.1
2,33.5
3,58.8
4,66.2
5,49.7
6,40.6
7,61.9
8,50.4
9,65.3
10,134.2
11,137.3
12,162.1
13,187.2
14,153.6
15,176.6
16,123.4
17,97.9
18,97.6
19,126.9
20,105.5
21,130.6
22,118.4
23,135.4
24,109.5
25,142.5
26,174.6
27,198.5
28,191.3
29,179.1
30,158.7
31,184.0
32,171.4
33,197.6
34,173.7
35,180.1
36,173.5
37,141.3
38,164.1
39,85.7
40,135.1
41,131.3
42,130.7
43,149.8
44,163.6
45,189.6
46,170.0
47,147.4
48,135.6
49,177.1
50,157.8
51,156.2
52,166.0
53,132.9
54,155.7
55,146.1
56,167.9
57,186.5
58,174.6
59,142.0
60,168.5
61,200.0
62,191.9
63,185.4
64,195.2
65,185.2
66,185.4
67,194.9
68,200.0
69,196.9
70,188.8
71,200.0
72,197.7
73,200.0
74,195.2
75,199.6
76,168.6
77,192.1
78,200.0
79,199.2
80,196.8
81,200.0
82,195.2
83,182.0
84,171.3
85,191.8
86,188.0
87,187.8
88,199.9
89,191.8
90,195.4
91,163.7
92,163.9
93,184.4
94,155.3
95,179.6
96,181.4
97,186.2
98,190.6
99,170.4
100,165.7
