1,35.6
2,33.9
3,40.9
4,46.6
5,59.4
6,60.4
7,53.3
8,60.0
9,99.7
10,124.0
11,164.6
12,130.0
13,167.7
14,170.1
15,195.2
16,184.6
17,194.1
18,200.0
19,166.9
20,193.1
21,176.4
22,194.4
23,176.1
24,183.1
25,141.5
26,167.3
27,182.0
28,194.8
29,186.8
30,197.1
31,178.0
32,200.0
33,189.4
34,188.8
35,180.4
36,193.0
37,200.0
38,181.2
39,172.2
40,194.9
41,200.0
42,190.6
43,188.2
44,194.4
45,175.7
46,197.6
47,188.4
48,154.1
49,155.5
50,187.2
51,188.3
52,185.9
53,189.5
54,200.0
55,188.6
56,200.0
57,195.0
58,200.0
59,200.0
60,188.5
61,200.0
62,200.0
63,200.0
64,192.5
65,200.0
66,200.0
67,200.0
68,200.0
69,193.1
70,198.7
71,200.0
72,197.4
73,185.9
74,200.0
75,200.0
76,200.0
77,200.0
78,200.0
79,200.0
80,200.0
81,200.0
82,188.9
83,200.0
84,200.0
85,200.0
86,182.0
87,200.0
88,200.0
89,200.0
90,179.2
91,200.0
92,153.3
93,197.2
94,183.1
95,200.0
96,160.2
97,185.6
98,191.3
99,179.6
100,195.8
