1,16.1
2,31.6
3,42.8
4,44.6
5,57.1
6,83.5
7,92.2
8,112.0
9,184.4
10,147.5
11,166.8
12,159.7
13,150.0
14,160.7
15,190.6
16,183.7
17,198.1
18,184.7
19,162.9
20,158.1
21,170.0
22,158.0
23,185.0
24,172.7
25,188.1
26,200.0
27,155.3
28,179.0
29,181.4
30,162.2
31,141.2
32,138.2
33,137.7
34,177.2
35,184.3
36,195.6
37,200.0
38,171.6
39,161.1
40,157.2
41,177.5
42,187.9
43,194.6
44,197.2
45,193.2
46,190.5
47,189.2
48,195.4
49,184.7
50,151.0
51,186.6
52,162.6
53,171.1
54,200.0
55,200.0
56,200.0
57,182.2
58,200.0
59,200.0
60,200.0
61,199.8
62,192.7
63,174.3
64,184.1
65,191.5
66,175.5
67,182.5
68,158.4
69,137.5
70,151.1
71,136.6
72,145.3
73,174.9
74,197.0
75,189.1
76,195.2
77,200.0
78,200.0
79,200.0
80,200.0
81,196.3
82,189.6
83,191.3
84,200.0
85,200.0
86,198.7
87,200.0
88,187.3
89,200.0
90,187.3
91,184.5
92,200.0
93,197.1
94,200.0
95,180.8
96,200.0
97,190.1
98,195.4
99,200.0
100,186.5
