1,17.5
2,27.4
3,35.8
4,36.2
5,47.9
6,57.2
7,50.0
8,83.2
9,52.3
10,68.4
11,82.1
12,49.1
13,82.2
14,118.6
15,102.4
16,105.1
17,92.7
18,114.7
19,122.9
20,134.7
21,127.9
22,138.5
23,130.7
24,158.4
25,142.7
26,172.9
27,132.2
28,141.9
29,150.3
30,153.8
31,161.2
32,198.8
33,193.1
34,174.7
35,181.6
36,191.8
37,180.6
38,186.2
39,177.1
40,165.4
41,165.7
42,171.0
43,150.1
44,188.0
45,168.3
46,160.5
47,165.7
48,137.4
49,167.1
50,178.6
51,173.1
52,166.4
53,152.9
54,158.3
55,176.7
56,154.9
57,168.2
58,184.0
59,190.5
60,181.5
61,183.2
62,156.5
63,190.8
64,174.1
65,144.6
66,111.7
67,156.1
68,178.9
69,189.0
70,187.1
71,181.4
72,200.0
73,189.5
74,185.5
75,194.1
76,185.9
77,186.9
78,169.6
79,178.4
80,190.6
81,200.0
82,196.4
83,200.0
84,198.0
85,192.8
86,200.0
87,179.7
88,199.1
89,200.0
90,187.4
91,200.0
92,200.0
93,176.1
94,195.6
95,200.0
96,200.0
97,200.0
98,191.9
99,187.0
100,173.3
