1,14.137
2,16.866666666666667
3,20.1234693877551
4,24.01443298969072
5,28.320833333333333
6,31.00315789473684
7,34.27765957446808
8,37.119354838709675
9,38.858695652173914
10,40.89230769230769
11,42.00888888888889
12,45.034831460674155
13,45.12045454545454
14,46.62528735632184
15,48.42325581395349
16,49.41411764705882
17,50.766666666666666
18,53.86626506024096
19,54.56829268292683
20,55.9641975308642
21,58.7275
22,59.618987341772154
23,64.0448717948718
24,65.95584415584416
25,70.16315789473684
26,75.75466666666667
27,79.85945945945946
28,88.22739726027397
29,105.79166666666667
30,137.4887323943662
31,155.19714285714286
32,165.84927536231885
33,170.70735294117648
34,180.24776119402986
35,172.91666666666666
36,182.43692307692308
37,184.6375
38,186.25873015873015
39,188.04516129032257
40,188.64590163934426
41,189.135
42,190.61016949152543
43,190.83793103448275
44,189.28947368421052
45,190.21785714285716
46,190.9909090909091
47,189.09814814814814
48,191.1
49,193.51538461538462
50,193.5529411764706
51,188.896
52,194.29183673469387
53,193.075
54,194.33617021276595
55,193.80217391304348
56,191.12666666666667
57,191.61136363636365
58,193.69302325581396
59,190.5404761904762
60,195.0268292682927
61,194.3
62,197.06666666666666
63,196.06842105263158
64,193.27027027027026
65,192.8138888888889
66,194.83428571428573
67,195.48823529411766
68,193.52424242424243
69,193.95625
70,193.94838709677418
71,193.89666666666668
72,192.47241379310344
73,197.07142857142858
74,193.36296296296297
75,185.07692307692307
76,195.096
77,193.49583333333334
78,193.69565217391303
79,187.1727272727273
80,187.44285714285715
81,191.995
82,194.94736842105263
83,187.67777777777778
84,190.74117647058824
85,193.5375
86,192.58666666666667
87,193.15714285714284
88,193.41538461538462
89,187.35833333333332
90,181.76363636363635
91,193.59
92,195.55555555555554
93,193.0625
94,194.81428571428572
95,191.28333333333333
96,197.0
97,195.9
98,196.73333333333332
99,196.8
100,193.4
