1,15.8
2,16.9
3,18.9
4,24.9
5,17.1
6,17.4
7,19.2
8,20.2
9,16.5
10,20.3
11,18.6
12,17.3
13,26.4
14,17.1
15,19.1
16,21.8
17,24.7
18,16.5
19,20.1
20,16.4
21,18.4
22,19.5
23,22.2
24,22.1
25,19.0
26,19.4
27,18.5
28,17.4
29,17.4
30,19.4
31,14.0
32,18.0
33,19.3
34,16.1
35,20.0
36,18.7
37,16.1
38,20.5
39,16.1
40,13.2
41,19.4
42,21.0
43,20.6
44,16.0
45,14.4
46,23.2
47,16.4
48,20.9
49,18.2
50,18.5
51,18.9
52,18.0
53,17.0
54,22.3
55,19.4
56,22.7
57,20.2
58,26.8
59,19.0
60,20.8
61,23.4
62,15.5
63,17.7
64,15.1
65,23.0
66,21.3
67,21.7
68,18.1
69,16.2
70,24.4
71,23.3
72,26.5
73,21.5
74,14.1
75,21.6
76,21.4
77,20.7
78,21.2
79,22.0
80,23.6
81,20.4
82,18.6
83,20.7
84,24.9
85,21.3
86,23.2
87,20.6
88,20.8
89,18.4
90,22.5
91,18.4
92,15.6
93,20.0
94,17.3
95,19.2
96,20.1
97,18.6
98,22.6
99,19.6
100,22.2
